D:\Eclipse_Workspace\BookstoreProject\src\main\java\BookstoreProject\ExportPanel.java
D:\Eclipse_Workspace\BookstoreProject\src\main\java\BookstoreProject\JDBCMainWindow.java
D:\Eclipse_Workspace\BookstoreProject\src\main\java\BookstoreProject\QueryTableModel.java
D:\Eclipse_Workspace\BookstoreProject\src\main\java\BookstoreProject\JDBCEmployeeWindow.java
D:\Eclipse_Workspace\BookstoreProject\src\main\java\BookstoreProject\JDBCMainWindowContent.java
D:\Eclipse_Workspace\BookstoreProject\src\main\java\BookstoreProject\MainClass.java
